…
```r
naniar::miss_var_summary(covid)
```

```
## # A tibble: 43 × 3
##    variable      n_miss pct_miss
##    <chr>          <int>    <dbl>
##  1 elect          47866     76.3
##  2 elect_partial  47866     76.3
##  3 school         16942     27.0
##  4 school_local   16942     27.0
##  5 masks          11241     17.9
##  6 masks_partial  11241     17.9
##  7 cash            8250     13.2
##  8 wage            8250     13.2
##  9 credit          8250     13.2
## 10 taxc            8250     13.2
## # … with 33 more rows
```
…
```r
covid_clean <- covid %>% 
  mutate(cov_date = dmy(cov_date)) %>% 
  clean_names()
covid_clean
```

```
## # A tibble: 62,700 × 43
##    country geoid iso   cov_date   cases deaths school school_local domestic
##    <chr>   <chr> <chr> <date>     <dbl>  <dbl>  <dbl>        <dbl>    <dbl>
##  1 Aruba   AW    ABW   2020-01-01     0      0      0            0       NA
##  2 Aruba   AW    ABW   2020-01-02     0      0      0            0       NA
##  3 Aruba   AW    ABW   2020-01-03     0      0      0            0       NA
##  4 Aruba   AW    ABW   2020-01-04     0      0      0            0       NA
##  5 Aruba   AW    ABW   2020-01-05     0      0      0            0       NA
##  6 Aruba   AW    ABW   2020-01-06     0      0      0            0       NA
##  7 Aruba   AW    ABW   2020-01-07     0      0      0            0       NA
##  8 Aruba   AW    ABW   2020-01-08     0      0      0            0       NA
##  9 Aruba   AW    ABW   2020-01-09     0      0      0            0       NA
## 10 Aruba   AW    ABW   2020-01-10     0      0      0            0       NA
## # … with 62,690 more rows, and 34 more variables: domestic_local <dbl>,
## #   travel <dbl>, travel_partial <dbl>, travel_dom <dbl>,
## #   travel_dom_partial <dbl>, curf <dbl>, curf_partial <dbl>, mass <dbl>,
## #   mass_partial <dbl>, elect <dbl>, elect_partial <dbl>, sport <dbl>,
## #   sport_partial <dbl>, rest <dbl>, rest_local <dbl>, testing <dbl>,
## #   testing_narrow <dbl>, masks <dbl>, masks_partial <dbl>, surveillance <dbl>,
## #   surveillance_partial <dbl>, state <dbl>, state_partial <dbl>, cash <dbl>, …
```

Total number of cases per country: 

```r
covid_clean %>% 
  select(country, cases) %>% 
  group_by(country) %>% 
  summarise(sum_cases=sum(cases)) %>% 
  arrange(desc(sum_cases))
```

```
## # A tibble: 228 × 2
##    country                  sum_cases
##    <chr>                        <dbl>
##  1 United States of America   7233043
##  2 India                      6312584
##  3 Brazil                     4810935
##  4 Russia                     1176286
##  5 Colombia                    829679
##  6 Peru                        814829
##  7 Mexico                      789286
##  8 Spain                       780777
##  9 Argentina                   750988
## 10 South Africa                674339
## # … with 218 more rows
```
…
Top 5 countries with the most total covid cases over 2020: United States, India, Brazil, Russia, Colombia. 

Total sum of deaths per country: 

```r
covid_clean %>%
  select(country, deaths) %>%
  group_by(country) %>%
  summarise(sum_deaths=sum(deaths)) %>%
  arrange(desc(sum_deaths))
```

```
## # A tibble: 228 × 2
##    country                  sum_deaths
##    <chr>                         <dbl>
##  1 United States of America     206928
##  2 Brazil                       143952
##  3 India                         98678
##  4 Mexico                        77646
##  5 United Kingdom                42143
##  6 Italy                         35956
##  7 Spain                         35813
##  8 Peru                          32463
##  9 France                        31956
## 10 Iran                          26169
## # … with 218 more rows
```
…
Economic measures taken by each country: 

```r
covid_clean %>% 
  select(country, economic_measures) %>% 
  filter(economic_measures!="NA") %>% 
  group_by(country) %>% 
  summarize(mean_economic_measures=mean(economic_measures)) %>% 
  arrange(desc(mean_economic_measures))
```

```
## # A tibble: 198 × 2
##    country                  mean_economic_measures
##    <chr>                                     <dbl>
##  1 Thailand                                  0.724
##  2 Spain                                     0.713
##  3 United States of America                  0.710
##  4 Trinidad and Tobago                       0.708
##  5 Australia                                 0.706
##  6 Portugal                                  0.696
##  7 Mongolia                                  0.696
##  8 Singapore                                 0.687
##  9 Austria                                   0.686
## 10 Canada                                    0.685
## # … with 188 more rows
```

```r
covid_clean %>% 
  select(country, economic_measures) %>% 
  filter(economic_measures!="NA") %>% 
  group_by(country) %>% 
  summarize(mean_economic_measures=mean(economic_measures)) %>% 
  arrange(mean_economic_measures)
```

```
## # A tibble: 198 × 2
##    country                          mean_economic_measures
##    <chr>                                             <dbl>
##  1 Djibouti                                              0
##  2 Eritrea                                               0
##  3 Kiribati                                              0
##  4 Libya                                                 0
##  5 Nauru                                                 0
##  6 Saint Vincent and the Grenadines                      0
##  7 Svalbard                                              0
##  8 Tuvalu                                                0
##  9 Wallis_and_Futuna                                     0
## 10 Yemen                                                 0
## # … with 188 more rows
```
…
```r
covid_clean %>% 
  select(country, rigidity_public_health) %>% 
  filter(rigidity_public_health!="NA") %>% 
  group_by(country) %>%
  summarize(mean_public_health_measures=mean(rigidity_public_health)) %>% 
  arrange(desc(mean_public_health_measures))
```

```
## # A tibble: 201 × 2
##    country      mean_public_health_measures
##    <chr>                              <dbl>
##  1 Morocco                            0.552
##  2 South Africa                       0.535
##  3 Philippines                        0.513
##  4 China                              0.508
##  5 Ecuador                            0.504
##  6 Paraguay                           0.500
##  7 Libya                              0.483
##  8 Panama                             0.480
##  9 Chile                              0.480
## 10 Iraq                               0.467
## # … with 191 more rows
```

```r
covid_clean %>% 
  select(country, rigidity_public_health) %>% 
  filter(rigidity_public_health!="NA") %>% 
  group_by(country) %>%
  summarize(mean_public_health_measures=mean(rigidity_public_health)) %>% 
  arrange((mean_public_health_measures))
```

```
## # A tibble: 201 × 2
##    country                               mean_public_health_measures
##    <chr>                                                       <dbl>
##  1 Wallis_and_Futuna                                         0      
##  2 Niue                                                      0.00331
##  3 Monaco                                                    0.0180 
##  4 Svalbard                                                  0.0183 
##  5 Democratic People's Republic of Korea                     0.0261 
##  6 Tokelau                                                   0.0263 
##  7 Burundi                                                   0.0398 
##  8 Saint Vincent and the Grenadines                          0.0438 
##  9 Anguilla                                                  0.0463 
## 10 Tanzania, United Republic of                              0.0726 
## # … with 191 more rows
```
…
```r
covid_clean %>% 
  select(country, economic_measures, rigidity_public_health) %>% 
  filter(economic_measures!="NA") %>% 
  filter(rigidity_public_health!="NA") %>% 
  group_by(country) %>% 
  summarize(mean_economic_measures=mean(economic_measures),
            mean_public_health_measures=mean(rigidity_public_health)) %>% 
  arrange(desc(mean_economic_measures))
```

```
## # A tibble: 193 × 3
##    country                  mean_economic_measures mean_public_health_measures
##    <chr>                                     <dbl>                       <dbl>
##  1 Thailand                                  0.724                       0.435
##  2 Spain                                     0.713                       0.378
##  3 United States of America                  0.710                       0.310
##  4 Trinidad and Tobago                       0.708                       0.320
##  5 Australia                                 0.706                       0.276
##  6 Portugal                                  0.696                       0.301
##  7 Mongolia                                  0.696                       0.371
##  8 Singapore                                 0.687                       0.372
##  9 Austria                                   0.686                       0.298
## 10 Canada                                    0.685                       0.286
## # … with 183 more rows
```
…
