…
```r
covid
```

```
## # A tibble: 62,700 x 43
##    country geoid iso   d         cases deaths school school_local domestic
##    <chr>   <chr> <chr> <chr>     <dbl>  <dbl>  <dbl>        <dbl>    <dbl>
##  1 Aruba   AW    ABW   1-Jan-20      0      0      0            0       NA
##  2 Aruba   AW    ABW   2-Jan-20      0      0      0            0       NA
##  3 Aruba   AW    ABW   3-Jan-20      0      0      0            0       NA
##  4 Aruba   AW    ABW   4-Jan-20      0      0      0            0       NA
##  5 Aruba   AW    ABW   5-Jan-20      0      0      0            0       NA
##  6 Aruba   AW    ABW   6-Jan-20      0      0      0            0       NA
##  7 Aruba   AW    ABW   7-Jan-20      0      0      0            0       NA
##  8 Aruba   AW    ABW   8-Jan-20      0      0      0            0       NA
##  9 Aruba   AW    ABW   9-Jan-20      0      0      0            0       NA
## 10 Aruba   AW    ABW   10-Jan-20     0      0      0            0       NA
## # ... with 62,690 more rows, and 34 more variables: domestic_local <dbl>,
## #   travel <dbl>, travel_partial <dbl>, travel_dom <dbl>,
## #   travel_dom_partial <dbl>, curf <dbl>, curf_partial <dbl>, mass <dbl>,
## #   mass_partial <dbl>, elect <dbl>, elect_partial <dbl>, sport <dbl>,
## #   sport_partial <dbl>, rest <dbl>, rest_local <dbl>, testing <dbl>,
## #   testing_narrow <dbl>, masks <dbl>, masks_partial <dbl>, surveillance <dbl>,
## #   surveillance_partial <dbl>, state <dbl>, state_partial <dbl>, ...
```
…
```r
covid <- covid %>%
  rename(cov_date= d)
covid
```

```
## # A tibble: 62,700 x 43
##    country geoid iso   cov_date  cases deaths school school_local domestic
##    <chr>   <chr> <chr> <chr>     <dbl>  <dbl>  <dbl>        <dbl>    <dbl>
##  1 Aruba   AW    ABW   1-Jan-20      0      0      0            0       NA
##  2 Aruba   AW    ABW   2-Jan-20      0      0      0            0       NA
##  3 Aruba   AW    ABW   3-Jan-20      0      0      0            0       NA
##  4 Aruba   AW    ABW   4-Jan-20      0      0      0            0       NA
##  5 Aruba   AW    ABW   5-Jan-20      0      0      0            0       NA
##  6 Aruba   AW    ABW   6-Jan-20      0      0      0            0       NA
##  7 Aruba   AW    ABW   7-Jan-20      0      0      0            0       NA
##  8 Aruba   AW    ABW   8-Jan-20      0      0      0            0       NA
##  9 Aruba   AW    ABW   9-Jan-20      0      0      0            0       NA
## 10 Aruba   AW    ABW   10-Jan-20     0      0      0            0       NA
## # ... with 62,690 more rows, and 34 more variables: domestic_local <dbl>,
## #   travel <dbl>, travel_partial <dbl>, travel_dom <dbl>,
## #   travel_dom_partial <dbl>, curf <dbl>, curf_partial <dbl>, mass <dbl>,
## #   mass_partial <dbl>, elect <dbl>, elect_partial <dbl>, sport <dbl>,
## #   sport_partial <dbl>, rest <dbl>, rest_local <dbl>, testing <dbl>,
## #   testing_narrow <dbl>, masks <dbl>, masks_partial <dbl>, surveillance <dbl>,
## #   surveillance_partial <dbl>, state <dbl>, state_partial <dbl>, ...
```


```r
covid_clean <- covid %>%
  mutate(cov_date = dmy(cov_date))
covid_clean
```

```
## # A tibble: 62,700 x 43
##    country geoid iso   cov_date   cases deaths school school_local domestic
##    <chr>   <chr> <chr> <date>     <dbl>  <dbl>  <dbl>        <dbl>    <dbl>
##  1 Aruba   AW    ABW   2020-01-01     0      0      0            0       NA
##  2 Aruba   AW    ABW   2020-01-02     0      0      0            0       NA
##  3 Aruba   AW    ABW   2020-01-03     0      0      0            0       NA
##  4 Aruba   AW    ABW   2020-01-04     0      0      0            0       NA
##  5 Aruba   AW    ABW   2020-01-05     0      0      0            0       NA
##  6 Aruba   AW    ABW   2020-01-06     0      0      0            0       NA
##  7 Aruba   AW    ABW   2020-01-07     0      0      0            0       NA
##  8 Aruba   AW    ABW   2020-01-08     0      0      0            0       NA
##  9 Aruba   AW    ABW   2020-01-09     0      0      0            0       NA
## 10 Aruba   AW    ABW   2020-01-10     0      0      0            0       NA
## # ... with 62,690 more rows, and 34 more variables: domestic_local <dbl>,
## #   travel <dbl>, travel_partial <dbl>, travel_dom <dbl>,
## #   travel_dom_partial <dbl>, curf <dbl>, curf_partial <dbl>, mass <dbl>,
## #   mass_partial <dbl>, elect <dbl>, elect_partial <dbl>, sport <dbl>,
## #   sport_partial <dbl>, rest <dbl>, rest_local <dbl>, testing <dbl>,
## #   testing_narrow <dbl>, masks <dbl>, masks_partial <dbl>, surveillance <dbl>,
## #   surveillance_partial <dbl>, state <dbl>, state_partial <dbl>, ...
```
…
#Top 5 and Worst 5 Countries looking at cases & deaths

```r
covid_cases <- covid_clean %>%
  select(country, cases) %>%
  group_by(country) %>%
  summarise(total_cases = sum(cases)) %>%
  arrange(desc(total_cases))
covid_cases
```

```
## # A tibble: 228 x 2
##    country                  total_cases
##    <chr>                          <dbl>
##  1 United States of America     7233043
##  2 India                        6312584
##  3 Brazil                       4810935
##  4 Russia                       1176286
##  5 Colombia                      829679
##  6 Peru                          814829
##  7 Mexico                        789286
##  8 Spain                         780777
##  9 Argentina                     750988
## 10 South Africa                  674339
## # ... with 218 more rows
```


```r
covid_deaths <- covid_clean %>%
  select(country, deaths) %>%
  group_by(country) %>%
  summarise(total_deaths = sum(deaths)) %>%
  arrange(desc(total_deaths))
covid_deaths
```

```
## # A tibble: 228 x 2
##    country                  total_deaths
##    <chr>                           <dbl>
##  1 United States of America       206928
##  2 Brazil                         143952
##  3 India                           98678
##  4 Mexico                          77646
##  5 United Kingdom                  42143
##  6 Italy                           35956
##  7 Spain                           35813
##  8 Peru                            32463
##  9 France                          31956
## 10 Iran                            26169
## # ... with 218 more rows
```
…
```r
most_cases_5 <- covid_clean %>%
  filter(country== "United States of America"|country== "India"|country== "Brazil"|country== "Russia"|country== "Colombia")
most_cases_5
```

```
## # A tibble: 1,375 x 43
##    country geoid iso   cov_date   cases deaths school school_local domestic
##    <chr>   <chr> <chr> <date>     <dbl>  <dbl>  <dbl>        <dbl>    <dbl>
##  1 Brazil  BR    BRA   2020-01-01     0      0      0            0        0
##  2 Brazil  BR    BRA   2020-01-02     0      0      0            0        0
##  3 Brazil  BR    BRA   2020-01-03     0      0      0            0        0
##  4 Brazil  BR    BRA   2020-01-04     0      0      0            0        0
##  5 Brazil  BR    BRA   2020-01-05     0      0      0            0        0
##  6 Brazil  BR    BRA   2020-01-06     0      0      0            0        0
##  7 Brazil  BR    BRA   2020-01-07     0      0      0            0        0
##  8 Brazil  BR    BRA   2020-01-08     0      0      0            0        0
##  9 Brazil  BR    BRA   2020-01-09     0      0      0            0        0
## 10 Brazil  BR    BRA   2020-01-10     0      0      0            0        0
## # ... with 1,365 more rows, and 34 more variables: domestic_local <dbl>,
## #   travel <dbl>, travel_partial <dbl>, travel_dom <dbl>,
## #   travel_dom_partial <dbl>, curf <dbl>, curf_partial <dbl>, mass <dbl>,
## #   mass_partial <dbl>, elect <dbl>, elect_partial <dbl>, sport <dbl>,
## #   sport_partial <dbl>, rest <dbl>, rest_local <dbl>, testing <dbl>,
## #   testing_narrow <dbl>, masks <dbl>, masks_partial <dbl>, surveillance <dbl>,
## #   surveillance_partial <dbl>, state <dbl>, state_partial <dbl>, ...
```


```r
least_cases_5 <- covid_clean %>%
  filter(country== "Solomon Islands"|country== "Marshall Islands"|country== "Anguilla"|country== "Laos"|country== "Saint Kitts and Nevis")
least_cases_5
```

```
## # A tibble: 1,375 x 43
##    country  geoid iso   cov_date   cases deaths school school_local domestic
##    <chr>    <chr> <chr> <date>     <dbl>  <dbl>  <dbl>        <dbl>    <dbl>
##  1 Anguilla AI    AIA   2020-01-01     0      0      0            0        0
##  2 Anguilla AI    AIA   2020-01-02     0      0      0            0        0
##  3 Anguilla AI    AIA   2020-01-03     0      0      0            0        0
##  4 Anguilla AI    AIA   2020-01-04     0      0      0            0        0
##  5 Anguilla AI    AIA   2020-01-05     0      0      0            0        0
##  6 Anguilla AI    AIA   2020-01-06     0      0      0            0        0
##  7 Anguilla AI    AIA   2020-01-07     0      0      0            0        0
##  8 Anguilla AI    AIA   2020-01-08     0      0      0            0        0
##  9 Anguilla AI    AIA   2020-01-09     0      0      0            0        0
## 10 Anguilla AI    AIA   2020-01-10     0      0      0            0        0
## # ... with 1,365 more rows, and 34 more variables: domestic_local <dbl>,
## #   travel <dbl>, travel_partial <dbl>, travel_dom <dbl>,
## #   travel_dom_partial <dbl>, curf <dbl>, curf_partial <dbl>, mass <dbl>,
## #   mass_partial <dbl>, elect <dbl>, elect_partial <dbl>, sport <dbl>,
## #   sport_partial <dbl>, rest <dbl>, rest_local <dbl>, testing <dbl>,
## #   testing_narrow <dbl>, masks <dbl>, masks_partial <dbl>, surveillance <dbl>,
## #   surveillance_partial <dbl>, state <dbl>, state_partial <dbl>, ...
```
…
